…
``` r
# 4
game_table <- dt %>%
    filter(str_detect(Book_title, pattern = "(G|g)ame")) %>%
    select(-Description, -Reviews) %>%
    arrange(desc(Price))

# view
game_table %>% mutate(Price = scales::dollar(Price))
```

    ## # A tibble: 26 x 5
    ##    Rating Book_title                               Number_Of_Pages Type    Price
    ##     <dbl> <chr>                                              <int> <fct>   <chr>
    ##  1   3.76 3D Game Engine Architecture: Engineerin~             752 Hardco~ $203~
    ##  2   3.82 Game Programming Gems 3                              663 Hardco~ $143~
    ##  3   3.77 Game Programming Gems 4                              703 Hardco~ $139~
    ##  4   3.82 Game Programming Gems 6                              700 Hardco~ $119~
    ##  5   3.45 3D Game Engine Design: A Practical Appr~            1040 Hardco~ $117~
    ##  6   3.67 Game Engine Gems 1                                   362 Hardco~ $105~
    ##  7   4.35 Game Engine Architecture                            1052 Hardco~ $96.~
    ##  8   4.1  Essential Mathematics for Games and Int~             624 Hardco~ $94.~
    ##  9   4    Game Programming Gems                                600 Hardco~ $91.~
    ## 10   4.01 Game Programming Gems 2                              575 Hardco~ $91.~
    ## # ... with 16 more rows
…
