…
``` r
# show the result
result
```

    ## # A tibble: 41 x 7
    ## # Groups:   year [41]
    ##    year  genre     total.movies avg.score avg.budget  avg.gross    avg.profit  
    ##    <chr> <fct>            <int>     <dbl> <chr>       <chr>        <chr>       
    ##  1 1980  Action              14      6.18 $16,642,857 $71,407,274  $54,764,416 
    ##  2 1981  Action              17      6.54 $10,605,882 $42,460,636  $31,854,754 
    ##  3 1982  Family               1      7.8  $10,500,000 $792,910,554 $782,410,554
    ##  4 1983  Action              31      5.5  $10,509,903 $33,992,856  $23,482,953 
    ##  5 1984  Action              31      6.25 $11,662,903 $53,427,677  $41,764,774 
    ##  6 1985  Biography            9      7.11 $6,222,222  $34,270,044  $28,047,822 
    ##  7 1986  Action              46      5.63 $9,545,682  $32,144,466  $22,598,784 
    ##  8 1987  Biography            7      7.24 $7,757,143  $32,969,695  $25,212,552 
    ##  9 1988  Animation            5      7.6  $23,440,000 $104,305,884 $80,865,884 
    ## 10 1989  Animation            4      6.77 $22,200,000 $60,777,722  $38,577,722 
    ## # ... with 31 more rows
…
